# Blender 3.3.0
# www.blender.org
mtllib shard.mtl
o Plane
v 0.124794 0.000000 0.164564
v -0.185944 0.000000 -0.016625
v 0.191977 0.000000 -0.005204
vn -0.0000 1.0000 -0.0000
vt 0.562397 0.417718
vt 0.407028 0.508313
vt 0.595989 0.502602
s 0
f 2/2/1 1/1/1 3/3/1
