[gd_resource type="SpatialMaterial" load_steps=5 format=2]
[ext_resource path="metal_albedo.png" type="Texture" id=1]
[ext_resource path="metal_orm.png" type="Texture" id=2]
[ext_resource path="metal_normal.png" type="Texture" id=3]
[resource]
albedo_color = Color(1, 1, 1, 1)
albedo_texture = ExtResource( 1 )
metallic = 1
metallic_texture = ExtResource( 2 )
metallic_texture_channel = 2
roughness = 0.6
roughness_texture = ExtResource( 2 )
roughness_texture_channel = 1
normal_enabled = true
normal_scale = 1
normal_texture = ExtResource( 3 )



