[gd_resource type="ShaderMaterial" load_steps=4 format=3 uid="uid://dw2walikp7o02"]

[ext_resource type="Shader" path="res://Assets/Materials/Water.gdshader" id="1_joa6w"]

[sub_resource type="FastNoiseLite" id="FastNoiseLite_balqg"]
noise_type = 0
fractal_type = 3

[sub_resource type="NoiseTexture2D" id="NoiseTexture2D_4tam3"]
noise = SubResource("FastNoiseLite_balqg")

[resource]
render_priority = 0
shader = ExtResource("1_joa6w")
shader_parameter/MOVEMENT_SPEED = 0.01
shader_parameter/albedo = Color(0.133333, 0.431373, 0.690196, 1)
shader_parameter/proximity_fade_distance = 0.5
shader_parameter/point_size = 1.0
shader_parameter/roughness = 0.1
shader_parameter/metallic_texture_channel = Plane(1, 0, 0, 0)
shader_parameter/specular = 0.5
shader_parameter/metallic = 0.0
shader_parameter/refraction = 0.1
shader_parameter/refraction_texture_channel = Plane(1, 0, 0, 0)
shader_parameter/normal_scale = -16.0
shader_parameter/uv1_scale = Vector3(1, 1, 1)
shader_parameter/uv1_offset = Vector3(0, 0, 0)
shader_parameter/uv2_scale = Vector3(1, 1, 1)
shader_parameter/uv2_offset = Vector3(0, 0, 0)
shader_parameter/texture_normal = SubResource("NoiseTexture2D_4tam3")
