[gd_scene load_steps=9 format=3 uid="uid://ctf2hapimr08j"]

[ext_resource type="Texture2D" uid="uid://cymsh6gl4lfuy" path="res://Assets/Textures/Monster/monster.jpg" id="1_h8bod"]
[ext_resource type="Shader" path="res://Scenes/Monster/Shadow.gdshader" id="2_001jq"]
[ext_resource type="Texture2D" uid="uid://dx10n35cksro6" path="res://Assets/Textures/Monster/monster_emission.png" id="2_58c3t"]

[sub_resource type="StandardMaterial3D" id="StandardMaterial3D_y31io"]
albedo_texture = ExtResource("1_h8bod")
emission_enabled = true
emission_texture = ExtResource("2_58c3t")

[sub_resource type="Gradient" id="Gradient_n35gy"]
offsets = PackedFloat32Array(0.195122, 0.504065)
colors = PackedColorArray(1, 1, 1, 1, 0, 0, 0, 1)

[sub_resource type="GradientTexture1D" id="GradientTexture1D_1occm"]
gradient = SubResource("Gradient_n35gy")

[sub_resource type="ShaderMaterial" id="ShaderMaterial_000fw"]
render_priority = 0
shader = ExtResource("2_001jq")
shader_parameter/INTENSITY = 1.0
shader_parameter/CURVE = SubResource("GradientTexture1D_1occm")

[sub_resource type="PlaneMesh" id="PlaneMesh_7iiwr"]
size = Vector2(4, 5)

[node name="Monster" type="Node3D"]

[node name="Sprite" type="Sprite3D" parent="."]
transform = Transform3D(0.5, 0, 0, 0, 0.5, 0, 0, 0, 0.5, 0, 0, -0.0260797)
material_override = SubResource("StandardMaterial3D_y31io")
texture = ExtResource("1_h8bod")

[node name="Shadow" type="MeshInstance3D" parent="."]
transform = Transform3D(1, 0, 0, 0, -4.37114e-08, -1, 0, 1, -4.37114e-08, 0, 0, -0.029613)
material_override = SubResource("ShaderMaterial_000fw")
mesh = SubResource("PlaneMesh_7iiwr")
