[gd_resource type="ArrayMesh" load_steps=3 format=3 uid="uid://bij3ofrfwt3xv"]

[sub_resource type="StandardMaterial3D" id="StandardMaterial3D_46b4j"]

[sub_resource type="ArrayMesh" id="ArrayMesh_0fgcw"]
_surfaces = [{
"aabb": AABB(-1, 0, -1, 2, 1e-05, 2.00001),
"format": 4097,
"index_count": 186,
"index_data": PackedByteArray(40, 0, 42, 0, 41, 0, 42, 0, 44, 0, 43, 0, 44, 0, 46, 0, 45, 0, 46, 0, 48, 0, 47, 0, 48, 0, 50, 0, 49, 0, 50, 0, 52, 0, 51, 0, 52, 0, 54, 0, 53, 0, 54, 0, 56, 0, 55, 0, 56, 0, 58, 0, 57, 0, 58, 0, 60, 0, 59, 0, 60, 0, 4, 0, 61, 0, 4, 0, 6, 0, 5, 0, 6, 0, 8, 0, 7, 0, 1, 0, 42, 0, 40, 0, 44, 0, 48, 0, 46, 0, 1, 0, 44, 0, 42, 0, 6, 0, 0, 0, 8, 0, 58, 0, 4, 0, 60, 0, 4, 0, 0, 0, 6, 0, 1, 0, 48, 0, 44, 0, 50, 0, 54, 0, 52, 0, 1, 0, 50, 0, 48, 0, 58, 0, 0, 0, 4, 0, 50, 0, 56, 0, 54, 0, 56, 0, 0, 0, 58, 0, 0, 0, 50, 0, 1, 0, 0, 0, 56, 0, 50, 0, 8, 0, 10, 0, 9, 0, 10, 0, 12, 0, 11, 0, 12, 0, 14, 0, 13, 0, 14, 0, 16, 0, 15, 0, 16, 0, 18, 0, 17, 0, 18, 0, 20, 0, 19, 0, 20, 0, 22, 0, 21, 0, 22, 0, 24, 0, 23, 0, 24, 0, 26, 0, 25, 0, 26, 0, 28, 0, 27, 0, 28, 0, 30, 0, 29, 0, 30, 0, 32, 0, 31, 0, 32, 0, 34, 0, 33, 0, 34, 0, 36, 0, 35, 0, 36, 0, 38, 0, 37, 0, 38, 0, 40, 0, 39, 0, 40, 0, 3, 0, 1, 0, 2, 0, 8, 0, 0, 0, 8, 0, 12, 0, 10, 0, 12, 0, 16, 0, 14, 0, 2, 0, 12, 0, 8, 0, 38, 0, 3, 0, 40, 0, 34, 0, 38, 0, 36, 0, 34, 0, 3, 0, 38, 0, 2, 0, 16, 0, 12, 0, 2, 0, 18, 0, 16, 0, 32, 0, 3, 0, 34, 0, 30, 0, 3, 0, 32, 0, 2, 0, 20, 0, 18, 0, 20, 0, 24, 0, 22, 0, 20, 0, 26, 0, 24, 0, 3, 0, 20, 0, 2, 0, 28, 0, 3, 0, 30, 0, 3, 0, 26, 0, 20, 0, 26, 0, 3, 0, 28, 0),
"lods": [0.142671, PackedByteArray(48, 0, 50, 0, 49, 0, 43, 0, 48, 0, 47, 0, 1, 0, 48, 0, 43, 0, 1, 0, 50, 0, 48, 0, 1, 0, 43, 0, 41, 0, 1, 0, 41, 0, 40, 0, 50, 0, 53, 0, 51, 0, 50, 0, 55, 0, 53, 0, 0, 0, 50, 0, 1, 0, 0, 0, 55, 0, 50, 0, 55, 0, 0, 0, 57, 0, 57, 0, 0, 0, 4, 0, 57, 0, 4, 0, 61, 0, 4, 0, 0, 0, 7, 0, 2, 0, 7, 0, 0, 0, 7, 0, 13, 0, 11, 0, 2, 0, 13, 0, 7, 0, 2, 0, 15, 0, 13, 0, 2, 0, 17, 0, 15, 0, 2, 0, 19, 0, 17, 0, 3, 0, 19, 0, 2, 0, 40, 0, 3, 0, 1, 0, 3, 0, 26, 0, 19, 0, 19, 0, 26, 0, 23, 0, 23, 0, 26, 0, 25, 0, 26, 0, 3, 0, 27, 0, 27, 0, 3, 0, 31, 0, 31, 0, 3, 0, 33, 0, 37, 0, 3, 0, 40, 0, 33, 0, 3, 0, 37, 0, 37, 0, 40, 0, 39, 0, 33, 0, 37, 0, 35, 0), 0.379225, PackedByteArray(1, 0, 47, 0, 41, 0, 1, 0, 49, 0, 47, 0, 41, 0, 3, 0, 1, 0, 0, 0, 49, 0, 1, 0, 0, 0, 51, 0, 49, 0, 51, 0, 0, 0, 57, 0, 57, 0, 0, 0, 61, 0, 2, 0, 61, 0, 0, 0, 2, 0, 11, 0, 61, 0, 2, 0, 17, 0, 11, 0, 3, 0, 17, 0, 2, 0, 35, 0, 3, 0, 41, 0, 3, 0, 25, 0, 17, 0, 33, 0, 3, 0, 35, 0, 25, 0, 3, 0, 27, 0, 27, 0, 3, 0, 33, 0), 0.538219, PackedByteArray(41, 0, 0, 0, 61, 0, 2, 0, 61, 0, 0, 0, 0, 0, 41, 0, 1, 0, 2, 0, 25, 0, 61, 0, 41, 0, 3, 0, 1, 0, 3, 0, 25, 0, 2, 0, 35, 0, 3, 0, 41, 0, 25, 0, 3, 0, 35, 0), 1.36505, PackedByteArray(0, 0, 35, 0, 1, 0, 35, 0, 3, 0, 1, 0, 3, 0, 35, 0, 0, 0)],
"primitive": 3,
"vertex_count": 62,
"vertex_data": PackedByteArray(0, 0, 128, 191, 0, 0, 0, 0, 0, 0, 128, 63, 0, 0, 128, 63, 0, 0, 0, 0, 0, 0, 128, 63, 0, 0, 128, 191, 0, 0, 0, 0, 0, 0, 128, 191, 0, 0, 128, 63, 0, 0, 0, 0, 0, 0, 128, 191, 124, 6, 47, 191, 0, 0, 0, 0, 146, 130, 69, 63, 118, 217, 224, 190, 0, 0, 0, 0, 161, 96, 17, 63, 198, 80, 55, 191, 0, 0, 0, 0, 234, 19, 42, 63, 246, 171, 242, 190, 0, 0, 0, 0, 134, 138, 228, 62, 241, 11, 56, 191, 0, 0, 0, 0, 16, 180, 3, 63, 60, 251, 245, 190, 0, 0, 0, 0, 124, 217, 184, 62, 66, 115, 51, 191, 0, 0, 0, 0, 107, 111, 174, 62, 52, 224, 212, 190, 0, 0, 0, 0, 26, 83, 137, 62, 166, 8, 44, 191, 0, 0, 0, 0, 0, 102, 146, 188, 170, 174, 16, 191, 0, 0, 0, 0, 208, 23, 193, 189, 232, 65, 19, 191, 0, 0, 0, 0, 244, 109, 70, 190, 212, 31, 229, 190, 0, 0, 0, 0, 80, 140, 148, 190, 236, 201, 20, 191, 0, 0, 0, 0, 60, 138, 35, 191, 26, 28, 206, 190, 0, 0, 0, 0, 43, 194, 14, 191, 76, 144, 213, 190, 0, 0, 0, 0, 196, 9, 69, 191, 208, 230, 82, 190, 0, 0, 0, 0, 230, 30, 43, 191, 252, 136, 71, 190, 0, 0, 0, 0, 193, 47, 96, 191, 0, 34, 6, 189, 0, 0, 0, 0, 253, 173, 37, 191, 16, 175, 146, 61, 0, 0, 0, 0, 182, 216, 77, 191, 40, 10, 42, 62, 0, 0, 0, 0, 70, 148, 37, 191, 248, 166, 176, 62, 0, 0, 0, 0, 202, 229, 82, 191, 64, 189, 176, 62, 0, 0, 0, 0, 42, 78, 21, 191, 164, 232, 230, 62, 0, 0, 0, 0, 228, 7, 82, 191, 182, 242, 2, 63, 0, 0, 0, 0, 216, 88, 18, 191, 250, 210, 53, 63, 0, 0, 0, 0, 181, 69, 74, 191, 166, 207, 20, 63, 0, 0, 0, 0, 248, 122, 12, 191, 59, 51, 77, 63, 0, 0, 0, 0, 204, 90, 36, 191, 143, 14, 37, 63, 0, 0, 0, 0, 128, 25, 220, 190, 177, 252, 99, 63, 0, 0, 0, 0, 244, 239, 184, 190, 128, 184, 40, 63, 0, 0, 0, 0, 120, 241, 137, 190, 150, 7, 102, 63, 0, 0, 0, 0, 168, 251, 58, 190, 202, 94, 35, 63, 0, 0, 0, 0, 152, 74, 71, 190, 15, 37, 98, 63, 0, 0, 0, 0, 0, 55, 168, 187, 199, 111, 35, 63, 0, 0, 0, 0, 128, 218, 190, 188, 31, 234, 100, 63, 0, 0, 0, 0, 104, 89, 167, 61, 164, 193, 37, 63, 0, 0, 0, 0, 0, 12, 3, 62, 157, 130, 105, 63, 0, 0, 0, 0, 200, 178, 249, 61, 200, 21, 40, 63, 0, 0, 0, 0, 28, 226, 101, 62, 171, 251, 95, 63, 0, 0, 0, 0, 4, 241, 98, 62, 182, 185, 40, 63, 0, 0, 0, 0, 48, 47, 144, 62, 20, 44, 92, 63, 0, 0, 0, 0, 36, 99, 210, 62, 46, 72, 46, 63, 0, 0, 0, 0, 172, 106, 199, 62, 220, 77, 82, 63, 0, 0, 0, 0, 192, 18, 12, 63, 188, 4, 25, 63, 0, 0, 0, 0, 112, 14, 14, 63, 176, 104, 84, 63, 0, 0, 0, 0, 30, 231, 45, 63, 20, 224, 16, 63, 0, 0, 0, 0, 68, 99, 30, 63, 130, 35, 30, 63, 0, 0, 0, 0, 172, 109, 73, 63, 196, 77, 206, 62, 0, 0, 0, 0, 52, 212, 34, 63, 190, 66, 179, 62, 0, 0, 0, 0, 77, 156, 72, 63, 192, 165, 58, 62, 0, 0, 0, 0, 237, 217, 42, 63, 220, 244, 171, 61, 0, 0, 0, 0, 130, 125, 83, 63, 0, 8, 30, 59, 0, 0, 0, 0, 25, 237, 53, 63, 252, 51, 222, 189, 0, 0, 0, 0, 92, 131, 91, 63, 182, 204, 34, 190, 0, 0, 0, 0, 50, 142, 24, 63, 124, 81, 158, 190, 0, 0, 0, 0, 42, 36, 92, 63, 84, 135, 164, 190, 0, 0, 0, 0, 210, 234, 34, 63, 242, 141, 0, 191, 0, 0, 0, 0, 198, 195, 73, 63, 75, 123, 192, 190, 0, 0, 0, 0, 40, 160, 23, 63)
}]
blend_shape_mode = 0

[resource]
resource_name = "brokenglass_Plane"
_surfaces = [{
"aabb": AABB(-1, 0, -1, 2, 1e-05, 2.00001),
"attribute_data": PackedByteArray(0, 0, 0, 0, 0, 0, 128, 63, 0, 0, 0, 0, 0, 0, 128, 63, 0, 0, 128, 63, 0, 0, 128, 63, 0, 0, 128, 63, 0, 0, 128, 63, 0, 0, 0, 0, 0, 0, 0, 0, 0, 0, 128, 63, 0, 0, 0, 0, 8, 243, 33, 62, 73, 193, 98, 63, 69, 147, 143, 62, 80, 176, 72, 63, 117, 94, 17, 62, 245, 9, 85, 63, 6, 170, 134, 62, 162, 34, 57, 63, 30, 232, 15, 62, 8, 218, 65, 63, 30, 232, 15, 62, 8, 218, 65, 63, 98, 2, 133, 62, 95, 54, 46, 63, 125, 25, 25, 62, 218, 155, 43, 63, 230, 143, 149, 62, 198, 84, 34, 63, 179, 238, 39, 62, 210, 108, 251, 62, 172, 162, 94, 62, 4, 221, 231, 62, 48, 124, 89, 62, 130, 100, 206, 62, 22, 112, 141, 62, 216, 185, 181, 62, 40, 108, 86, 62, 136, 235, 56, 62, 243, 241, 152, 62, 172, 123, 98, 62, 218, 55, 149, 62, 240, 216, 235, 61, 76, 70, 203, 62, 52, 194, 41, 62, 195, 29, 206, 62, 224, 129, 126, 61, 226, 157, 247, 62, 0, 164, 52, 62, 241, 42, 9, 63, 32, 157, 200, 61, 69, 65, 21, 63, 116, 215, 52, 62, 189, 41, 44, 63, 224, 104, 180, 61, 80, 47, 44, 63, 172, 99, 85, 62, 40, 186, 57, 63, 120, 224, 183, 61, 90, 121, 65, 63, 88, 78, 91, 62, 124, 233, 90, 63, 48, 233, 214, 61, 210, 103, 74, 63, 20, 10, 103, 62, 158, 153, 102, 63, 104, 74, 55, 62, 71, 135, 82, 63, 64, 243, 145, 62, 88, 254, 113, 63, 6, 136, 163, 62, 64, 92, 84, 63, 66, 7, 187, 62, 204, 3, 115, 63, 22, 65, 209, 62, 100, 175, 81, 63, 90, 45, 206, 62, 136, 18, 113, 63, 144, 175, 254, 62, 228, 183, 81, 63, 44, 9, 250, 62, 16, 117, 114, 63, 151, 117, 10, 63, 211, 224, 82, 63, 128, 97, 16, 63, 79, 193, 116, 63, 44, 155, 15, 63, 79, 193, 116, 63, 44, 155, 15, 63, 228, 10, 84, 63, 68, 188, 28, 63, 214, 253, 111, 63, 32, 94, 28, 63, 219, 92, 84, 63, 204, 11, 36, 63, 10, 22, 110, 63, 201, 152, 52, 63, 23, 36, 87, 63, 171, 218, 49, 63, 239, 38, 105, 63, 96, 9, 70, 63, 94, 130, 76, 63, 56, 7, 71, 63, 88, 52, 106, 63, 143, 243, 86, 63, 10, 112, 72, 63, 162, 49, 79, 63, 193, 17, 79, 63, 214, 182, 100, 63, 114, 147, 51, 63, 26, 106, 81, 63, 174, 208, 44, 63, 38, 78, 100, 63, 184, 84, 23, 63, 246, 108, 85, 63, 77, 191, 10, 63, 193, 190, 105, 63, 4, 79, 0, 63, 140, 246, 90, 63, 129, 57, 228, 62, 174, 193, 109, 63, 210, 76, 215, 62, 25, 71, 76, 63, 66, 215, 176, 62, 21, 18, 110, 63, 86, 188, 173, 62, 105, 117, 81, 63, 28, 228, 126, 62, 227, 225, 100, 63, 91, 194, 159, 62, 20, 208, 75, 63),
"format": 4119,
"index_count": 186,
"index_data": PackedByteArray(44, 0, 46, 0, 45, 0, 46, 0, 48, 0, 47, 0, 48, 0, 50, 0, 49, 0, 50, 0, 52, 0, 51, 0, 52, 0, 54, 0, 53, 0, 54, 0, 56, 0, 55, 0, 56, 0, 58, 0, 57, 0, 58, 0, 60, 0, 59, 0, 60, 0, 62, 0, 61, 0, 62, 0, 64, 0, 63, 0, 64, 0, 6, 0, 65, 0, 6, 0, 8, 0, 7, 0, 8, 0, 11, 0, 9, 0, 3, 0, 46, 0, 44, 0, 48, 0, 52, 0, 50, 0, 3, 0, 48, 0, 46, 0, 8, 0, 1, 0, 11, 0, 62, 0, 6, 0, 64, 0, 6, 0, 1, 0, 8, 0, 3, 0, 52, 0, 48, 0, 54, 0, 58, 0, 56, 0, 3, 0, 54, 0, 52, 0, 62, 0, 1, 0, 6, 0, 54, 0, 60, 0, 58, 0, 60, 0, 1, 0, 62, 0, 1, 0, 54, 0, 3, 0, 1, 0, 60, 0, 54, 0, 10, 0, 13, 0, 12, 0, 13, 0, 15, 0, 14, 0, 15, 0, 17, 0, 16, 0, 17, 0, 19, 0, 18, 0, 19, 0, 21, 0, 20, 0, 21, 0, 23, 0, 22, 0, 23, 0, 25, 0, 24, 0, 25, 0, 27, 0, 26, 0, 27, 0, 29, 0, 28, 0, 29, 0, 31, 0, 30, 0, 31, 0, 33, 0, 32, 0, 33, 0, 35, 0, 34, 0, 35, 0, 37, 0, 36, 0, 37, 0, 39, 0, 38, 0, 39, 0, 41, 0, 40, 0, 41, 0, 43, 0, 42, 0, 43, 0, 5, 0, 2, 0, 4, 0, 10, 0, 0, 0, 10, 0, 15, 0, 13, 0, 15, 0, 19, 0, 17, 0, 4, 0, 15, 0, 10, 0, 41, 0, 5, 0, 43, 0, 37, 0, 41, 0, 39, 0, 37, 0, 5, 0, 41, 0, 4, 0, 19, 0, 15, 0, 4, 0, 21, 0, 19, 0, 35, 0, 5, 0, 37, 0, 33, 0, 5, 0, 35, 0, 4, 0, 23, 0, 21, 0, 23, 0, 27, 0, 25, 0, 23, 0, 29, 0, 27, 0, 5, 0, 23, 0, 4, 0, 31, 0, 5, 0, 33, 0, 5, 0, 29, 0, 23, 0, 29, 0, 5, 0, 31, 0),
"lods": [0.142671, PackedByteArray(52, 0, 54, 0, 53, 0, 47, 0, 52, 0, 51, 0, 2, 0, 52, 0, 47, 0, 2, 0, 54, 0, 52, 0, 2, 0, 47, 0, 45, 0, 2, 0, 45, 0, 43, 0, 54, 0, 57, 0, 55, 0, 54, 0, 59, 0, 57, 0, 0, 0, 54, 0, 2, 0, 0, 0, 59, 0, 54, 0, 59, 0, 0, 0, 61, 0, 61, 0, 0, 0, 6, 0, 61, 0, 6, 0, 65, 0, 6, 0, 0, 0, 9, 0, 4, 0, 9, 0, 0, 0, 9, 0, 16, 0, 14, 0, 4, 0, 16, 0, 9, 0, 4, 0, 18, 0, 16, 0, 4, 0, 20, 0, 18, 0, 4, 0, 22, 0, 20, 0, 5, 0, 22, 0, 4, 0, 43, 0, 5, 0, 2, 0, 5, 0, 29, 0, 22, 0, 22, 0, 29, 0, 26, 0, 26, 0, 29, 0, 28, 0, 29, 0, 5, 0, 30, 0, 30, 0, 5, 0, 34, 0, 34, 0, 5, 0, 36, 0, 40, 0, 5, 0, 43, 0, 36, 0, 5, 0, 40, 0, 40, 0, 43, 0, 42, 0, 36, 0, 40, 0, 38, 0), 0.379225, PackedByteArray(2, 0, 51, 0, 45, 0, 2, 0, 53, 0, 51, 0, 45, 0, 5, 0, 2, 0, 0, 0, 53, 0, 2, 0, 0, 0, 55, 0, 53, 0, 55, 0, 0, 0, 61, 0, 61, 0, 0, 0, 65, 0, 4, 0, 65, 0, 0, 0, 4, 0, 14, 0, 65, 0, 4, 0, 20, 0, 14, 0, 5, 0, 20, 0, 4, 0, 38, 0, 5, 0, 45, 0, 5, 0, 28, 0, 20, 0, 36, 0, 5, 0, 38, 0, 28, 0, 5, 0, 30, 0, 30, 0, 5, 0, 36, 0), 0.538219, PackedByteArray(45, 0, 0, 0, 65, 0, 4, 0, 65, 0, 0, 0, 0, 0, 45, 0, 2, 0, 4, 0, 28, 0, 65, 0, 45, 0, 5, 0, 2, 0, 5, 0, 28, 0, 4, 0, 38, 0, 5, 0, 45, 0, 28, 0, 5, 0, 38, 0), 1.36505, PackedByteArray(0, 0, 38, 0, 2, 0, 38, 0, 5, 0, 2, 0, 5, 0, 38, 0, 0, 0)],
"material": SubResource("StandardMaterial3D_46b4j"),
"primitive": 3,
"vertex_count": 66,
"vertex_data": PackedByteArray(0, 0, 128, 191, 0, 0, 0, 0, 0, 0, 128, 63, 255, 127, 255, 255, 255, 255, 255, 191, 0, 0, 128, 191, 0, 0, 0, 0, 0, 0, 128, 63, 255, 127, 255, 255, 255, 255, 255, 191, 0, 0, 128, 63, 0, 0, 0, 0, 0, 0, 128, 63, 255, 127, 255, 255, 255, 255, 255, 191, 0, 0, 128, 63, 0, 0, 0, 0, 0, 0, 128, 63, 255, 127, 255, 255, 255, 255, 255, 191, 0, 0, 128, 191, 0, 0, 0, 0, 0, 0, 128, 191, 255, 127, 255, 255, 255, 255, 255, 191, 0, 0, 128, 63, 0, 0, 0, 0, 0, 0, 128, 191, 255, 127, 255, 255, 254, 255, 255, 191, 124, 6, 47, 191, 0, 0, 0, 0, 146, 130, 69, 63, 255, 127, 255, 255, 255, 255, 255, 191, 118, 217, 224, 190, 0, 0, 0, 0, 161, 96, 17, 63, 255, 127, 255, 255, 254, 255, 255, 191, 198, 80, 55, 191, 0, 0, 0, 0, 234, 19, 42, 63, 255, 127, 255, 255, 255, 255, 255, 191, 246, 171, 242, 190, 0, 0, 0, 0, 134, 138, 228, 62, 255, 127, 255, 255, 255, 255, 255, 191, 241, 11, 56, 191, 0, 0, 0, 0, 16, 180, 3, 63, 255, 127, 255, 255, 255, 255, 255, 191, 241, 11, 56, 191, 0, 0, 0, 0, 16, 180, 3, 63, 255, 127, 255, 255, 255, 255, 255, 191, 60, 251, 245, 190, 0, 0, 0, 0, 124, 217, 184, 62, 255, 127, 255, 255, 255, 255, 255, 191, 66, 115, 51, 191, 0, 0, 0, 0, 107, 111, 174, 62, 255, 127, 255, 255, 254, 255, 255, 191, 52, 224, 212, 190, 0, 0, 0, 0, 26, 83, 137, 62, 255, 127, 255, 255, 255, 255, 255, 191, 166, 8, 44, 191, 0, 0, 0, 0, 0, 102, 146, 188, 255, 127, 255, 255, 255, 255, 255, 191, 170, 174, 16, 191, 0, 0, 0, 0, 208, 23, 193, 189, 255, 127, 255, 255, 254, 255, 255, 191, 232, 65, 19, 191, 0, 0, 0, 0, 244, 109, 70, 190, 255, 127, 255, 255, 254, 255, 255, 191, 212, 31, 229, 190, 0, 0, 0, 0, 80, 140, 148, 190, 255, 127, 255, 255, 255, 255, 255, 191, 236, 201, 20, 191, 0, 0, 0, 0, 60, 138, 35, 191, 255, 127, 255, 255, 255, 255, 255, 191, 26, 28, 206, 190, 0, 0, 0, 0, 43, 194, 14, 191, 255, 127, 255, 255, 255, 255, 255, 191, 76, 144, 213, 190, 0, 0, 0, 0, 196, 9, 69, 191, 255, 127, 255, 255, 254, 255, 255, 191, 208, 230, 82, 190, 0, 0, 0, 0, 230, 30, 43, 191, 255, 127, 255, 255, 254, 255, 255, 191, 252, 136, 71, 190, 0, 0, 0, 0, 193, 47, 96, 191, 255, 127, 255, 255, 255, 255, 255, 191, 0, 34, 6, 189, 0, 0, 0, 0, 253, 173, 37, 191, 255, 127, 255, 255, 255, 255, 255, 191, 16, 175, 146, 61, 0, 0, 0, 0, 182, 216, 77, 191, 255, 127, 255, 255, 255, 255, 255, 191, 40, 10, 42, 62, 0, 0, 0, 0, 70, 148, 37, 191, 255, 127, 255, 255, 255, 255, 255, 191, 248, 166, 176, 62, 0, 0, 0, 0, 202, 229, 82, 191, 255, 127, 255, 255, 255, 255, 255, 191, 64, 189, 176, 62, 0, 0, 0, 0, 42, 78, 21, 191, 255, 127, 255, 255, 255, 255, 255, 191, 164, 232, 230, 62, 0, 0, 0, 0, 228, 7, 82, 191, 255, 127, 255, 255, 255, 255, 255, 191, 182, 242, 2, 63, 0, 0, 0, 0, 216, 88, 18, 191, 255, 127, 255, 255, 254, 255, 255, 191, 250, 210, 53, 63, 0, 0, 0, 0, 181, 69, 74, 191, 255, 127, 255, 255, 254, 255, 255, 191, 166, 207, 20, 63, 0, 0, 0, 0, 248, 122, 12, 191, 255, 127, 255, 255, 254, 255, 255, 191, 59, 51, 77, 63, 0, 0, 0, 0, 204, 90, 36, 191, 255, 127, 255, 255, 254, 255, 255, 191, 143, 14, 37, 63, 0, 0, 0, 0, 128, 25, 220, 190, 255, 127, 255, 255, 255, 255, 255, 191, 177, 252, 99, 63, 0, 0, 0, 0, 244, 239, 184, 190, 255, 127, 255, 255, 255, 255, 255, 191, 128, 184, 40, 63, 0, 0, 0, 0, 120, 241, 137, 190, 255, 127, 255, 255, 255, 255, 255, 191, 150, 7, 102, 63, 0, 0, 0, 0, 168, 251, 58, 190, 255, 127, 255, 255, 255, 255, 255, 191, 202, 94, 35, 63, 0, 0, 0, 0, 152, 74, 71, 190, 255, 127, 255, 255, 255, 255, 255, 191, 15, 37, 98, 63, 0, 0, 0, 0, 0, 55, 168, 187, 255, 127, 255, 255, 255, 255, 255, 191, 199, 111, 35, 63, 0, 0, 0, 0, 128, 218, 190, 188, 255, 127, 255, 255, 254, 255, 255, 191, 31, 234, 100, 63, 0, 0, 0, 0, 104, 89, 167, 61, 255, 127, 255, 255, 254, 255, 255, 191, 164, 193, 37, 63, 0, 0, 0, 0, 0, 12, 3, 62, 255, 127, 255, 255, 254, 255, 255, 191, 157, 130, 105, 63, 0, 0, 0, 0, 200, 178, 249, 61, 255, 127, 255, 255, 254, 255, 255, 191, 157, 130, 105, 63, 0, 0, 0, 0, 200, 178, 249, 61, 255, 127, 255, 255, 254, 255, 255, 191, 200, 21, 40, 63, 0, 0, 0, 0, 28, 226, 101, 62, 255, 127, 255, 255, 254, 255, 255, 191, 171, 251, 95, 63, 0, 0, 0, 0, 4, 241, 98, 62, 255, 127, 255, 255, 254, 255, 255, 191, 182, 185, 40, 63, 0, 0, 0, 0, 48, 47, 144, 62, 255, 127, 255, 255, 254, 255, 255, 191, 20, 44, 92, 63, 0, 0, 0, 0, 36, 99, 210, 62, 255, 127, 255, 255, 254, 255, 255, 191, 46, 72, 46, 63, 0, 0, 0, 0, 172, 106, 199, 62, 255, 127, 255, 255, 255, 255, 255, 191, 220, 77, 82, 63, 0, 0, 0, 0, 192, 18, 12, 63, 255, 127, 255, 255, 255, 255, 255, 191, 188, 4, 25, 63, 0, 0, 0, 0, 112, 14, 14, 63, 255, 127, 255, 255, 255, 255, 255, 191, 176, 104, 84, 63, 0, 0, 0, 0, 30, 231, 45, 63, 255, 127, 255, 255, 255, 255, 255, 191, 20, 224, 16, 63, 0, 0, 0, 0, 68, 99, 30, 63, 255, 127, 255, 255, 255, 255, 255, 191, 130, 35, 30, 63, 0, 0, 0, 0, 172, 109, 73, 63, 255, 127, 255, 255, 255, 255, 255, 191, 196, 77, 206, 62, 0, 0, 0, 0, 52, 212, 34, 63, 255, 127, 255, 255, 255, 255, 255, 191, 190, 66, 179, 62, 0, 0, 0, 0, 77, 156, 72, 63, 255, 127, 255, 255, 255, 255, 255, 191, 192, 165, 58, 62, 0, 0, 0, 0, 237, 217, 42, 63, 255, 127, 255, 255, 254, 255, 255, 191, 220, 244, 171, 61, 0, 0, 0, 0, 130, 125, 83, 63, 255, 127, 255, 255, 255, 255, 255, 191, 0, 8, 30, 59, 0, 0, 0, 0, 25, 237, 53, 63, 255, 127, 255, 255, 255, 255, 255, 191, 252, 51, 222, 189, 0, 0, 0, 0, 92, 131, 91, 63, 255, 127, 255, 255, 255, 255, 255, 191, 182, 204, 34, 190, 0, 0, 0, 0, 50, 142, 24, 63, 255, 127, 255, 255, 255, 255, 255, 191, 124, 81, 158, 190, 0, 0, 0, 0, 42, 36, 92, 63, 255, 127, 255, 255, 255, 255, 255, 191, 84, 135, 164, 190, 0, 0, 0, 0, 210, 234, 34, 63, 255, 127, 255, 255, 255, 255, 255, 191, 242, 141, 0, 191, 0, 0, 0, 0, 198, 195, 73, 63, 255, 127, 255, 255, 255, 255, 255, 191, 75, 123, 192, 190, 0, 0, 0, 0, 40, 160, 23, 63, 255, 127, 255, 255, 255, 255, 255, 191)
}]
blend_shape_mode = 0
shadow_mesh = SubResource("ArrayMesh_0fgcw")
