[gd_scene load_steps=7 format=3 uid="uid://f8xjqllpt22t"]

[ext_resource type="Script" path="res://Scenes/WorldObjects/Door/Door.cs" id="1_mr3af"]

[sub_resource type="BoxMesh" id="BoxMesh_nat8q"]
size = Vector3(0.1, 2.6, 1.5)

[sub_resource type="BoxShape3D" id="BoxShape3D_75ekw"]
size = Vector3(0.1, 2.6, 1.5)

[sub_resource type="Animation" id="Animation_ejpyt"]
resource_name = "Open"
length = 0.7
tracks/0/type = "value"
tracks/0/imported = false
tracks/0/enabled = true
tracks/0/path = NodePath("Mesh:position")
tracks/0/interp = 1
tracks/0/loop_wrap = true
tracks/0/keys = {
"times": PackedFloat32Array(0, 0.7),
"transitions": PackedFloat32Array(1, 1),
"update": 0,
"values": [Vector3(0, 1.3, 0), Vector3(0, 1.3, -1.9)]
}
tracks/1/type = "value"
tracks/1/imported = false
tracks/1/enabled = true
tracks/1/path = NodePath("Collider:position")
tracks/1/interp = 1
tracks/1/loop_wrap = true
tracks/1/keys = {
"times": PackedFloat32Array(0, 0.7),
"transitions": PackedFloat32Array(1, 1),
"update": 0,
"values": [Vector3(0, 1.3, 0), Vector3(0, 1.3, -1.9)]
}

[sub_resource type="AnimationLibrary" id="AnimationLibrary_ms7xp"]
_data = {
"Open": SubResource("Animation_ejpyt")
}

[sub_resource type="BoxShape3D" id="BoxShape3D_5hcha"]
size = Vector3(2, 2.6, 2)

[node name="Door" type="AnimatableBody3D"]
collision_layer = 2
script = ExtResource("1_mr3af")

[node name="Mesh" type="MeshInstance3D" parent="."]
transform = Transform3D(1, 0, 0, 0, 1, 0, 0, 0, 1, 0, 1.3, 0)
mesh = SubResource("BoxMesh_nat8q")

[node name="Collider" type="CollisionShape3D" parent="."]
transform = Transform3D(1, 0, 0, 0, 1, 0, 0, 0, 1, 0, 1.3, 0)
shape = SubResource("BoxShape3D_75ekw")

[node name="AnimationPlayer" type="AnimationPlayer" parent="."]
libraries = {
"": SubResource("AnimationLibrary_ms7xp")
}

[node name="OpenArea" type="Area3D" parent="."]
collision_layer = 2

[node name="Collider" type="CollisionShape3D" parent="OpenArea"]
transform = Transform3D(1, 0, 0, 0, 1, 0, 0, 0, 1, 0, 1.3, 0)
shape = SubResource("BoxShape3D_5hcha")

[connection signal="body_entered" from="OpenArea" to="." method="OpenDoor"]
[connection signal="body_exited" from="OpenArea" to="." method="CloseDoor"]
