<?xml version="1.0" encoding="UTF-8" standalone="no"?>
<!-- Created with Inkscape (http://www.inkscape.org/) -->

<svg
   width="1920"
   height="1080"
   viewBox="0 0 507.99999 285.75"
   version="1.1"
   id="svg5"
   inkscape:version="1.2.1 (9c6d41e410, 2022-07-14, custom)"
   sodipodi:docname="bootsplash.svg"
   inkscape:export-filename="bootsplash.png"
   inkscape:export-xdpi="96"
   inkscape:export-ydpi="96"
   xmlns:inkscape="http://www.inkscape.org/namespaces/inkscape"
   xmlns:sodipodi="http://sodipodi.sourceforge.net/DTD/sodipodi-0.dtd"
   xmlns="http://www.w3.org/2000/svg"
   xmlns:svg="http://www.w3.org/2000/svg">
  <sodipodi:namedview
     id="namedview7"
     pagecolor="#505050"
     bordercolor="#eeeeee"
     borderopacity="1"
     inkscape:showpageshadow="0"
     inkscape:pageopacity="0"
     inkscape:pagecheckerboard="0"
     inkscape:deskcolor="#505050"
     inkscape:document-units="px"
     showgrid="true"
     inkscape:zoom="0.35155239"
     inkscape:cx="742.42135"
     inkscape:cy="583.12788"
     inkscape:window-width="1672"
     inkscape:window-height="911"
     inkscape:window-x="0"
     inkscape:window-y="0"
     inkscape:window-maximized="1"
     inkscape:current-layer="layer1">
    <inkscape:grid
       type="xygrid"
       id="grid132"
       spacingx="2.1166666"
       spacingy="2.1166666" />
  </sodipodi:namedview>
  <defs
     id="defs2">
    <rect
       x="1280"
       y="896"
       width="1088"
       height="96.000005"
       id="rect2354" />
  </defs>
  <g
     inkscape:label="Layer 1"
     inkscape:groupmode="layer"
     id="layer1">
    <rect
       style="fill:#000514;fill-opacity:1;stroke:#000000;stroke-width:0;stroke-linecap:round;stroke-linejoin:round;stroke-dashoffset:19.9999;stroke-opacity:0.5"
       id="rect236"
       width="508"
       height="285.75"
       x="0"
       y="0"
       rx="2.1166666"
       ry="2.1166666" />
    <text
       xml:space="preserve"
       transform="matrix(0.26458333,0,0,0.26458333,-127.09348,5.2151123)"
       id="text2352"
       style="font-style:normal;font-weight:normal;font-size:85.3333px;line-height:1.25;font-family:sans-serif;white-space:pre;shape-inside:url(#rect2354);shape-padding:0;display:inline;fill:#ffffff;fill-opacity:1;stroke:#ffffff;stroke-opacity:0.5"><tspan
         x="1280"
         y="973.64265"
         id="tspan4369">The game is now loading...</tspan></text>
    <path
       style="fill:#4e4e64;stroke:#000000;stroke-width:0.264583px;stroke-linecap:butt;stroke-linejoin:miter;stroke-opacity:1;fill-opacity:1"
       d="m 347.13332,152.4 c 0,8.46666 -33.86666,8.46666 -33.86666,0 z"
       id="path4199"
       sodipodi:nodetypes="ccc" />
    <path
       style="fill:#4e4e64;fill-opacity:1;stroke:#000000;stroke-width:0.264583px;stroke-linecap:butt;stroke-linejoin:miter;stroke-opacity:1"
       d="m 271.06561,152.53229 c 0,8.46666 -33.86666,8.46666 -33.86666,0 z"
       id="path4201"
       sodipodi:nodetypes="ccc" />
    <path
       style="fill:#4e4e64;fill-opacity:1;stroke:#000000;stroke-width:0.264583px;stroke-linecap:butt;stroke-linejoin:miter;stroke-opacity:1"
       d="m 194.86561,152.53229 c 0,8.46666 -33.86666,8.46666 -33.86666,0 z"
       id="path4203"
       sodipodi:nodetypes="ccc" />
    <path
       style="fill:#4e4e64;fill-opacity:1;stroke:#000000;stroke-width:0.264583px;stroke-linecap:butt;stroke-linejoin:miter;stroke-opacity:1"
       d="m 118.53332,152.4 c 0,8.46666 -33.866656,8.46666 -33.866656,0 z"
       id="path4205"
       sodipodi:nodetypes="ccc" />
    <path
       style="fill:#4e4e64;fill-opacity:1;stroke:#000000;stroke-width:0.264583px;stroke-linecap:butt;stroke-linejoin:miter;stroke-opacity:1"
       d="m 42.333322,152.4 c 0,8.46666 -33.8666556,8.46666 -33.8666556,0 z"
       id="path4207"
       sodipodi:nodetypes="ccc" />
    <path
       style="fill:#413d72;stroke:#413d72;stroke-width:2.64583331;stroke-linecap:butt;stroke-linejoin:miter;stroke-opacity:1;fill-opacity:1;stroke-dasharray:none"
       d="m 0,50.799999 h 355.6 c 8.46666,-10e-7 16.93332,8.466666 16.93332,8.466666 l 67.73334,76.199995 c 8.46666,8.46667 0,16.93334 0,16.93334 H 0"
       id="path4148"
       sodipodi:nodetypes="cccccc" />
    <path
       id="path4261-3"
       style="fill:#000000;fill-opacity:1;stroke:#413d72;stroke-width:2.64583331;stroke-linecap:butt;stroke-linejoin:miter;stroke-opacity:1;stroke-dasharray:none"
       d="M 380.05949,67.733326 0,67.733331 v 42.333329 l 417.68871,0 z"
       sodipodi:nodetypes="ccccc" />
  </g>
</svg>
