[gd_scene load_steps=10 format=3 uid="uid://ofconjd0kgec"]

[ext_resource type="Script" path="res://Scenes/Monster/MonsterWindow/MonsterWindow.cs" id="1_6b4iw"]
[ext_resource type="Texture2D" uid="uid://cymsh6gl4lfuy" path="res://Assets/Textures/Monster/monster.jpg" id="2_cetfo"]

[sub_resource type="BoxShape3D" id="BoxShape3D_xpqsu"]
size = Vector3(1.8, 1.8, 0.2)

[sub_resource type="Animation" id="Animation_ewwhh"]
resource_name = "Appear"
length = 20.0
tracks/0/type = "position_3d"
tracks/0/imported = false
tracks/0/enabled = true
tracks/0/path = NodePath("Sprite")
tracks/0/interp = 1
tracks/0/loop_wrap = true
tracks/0/keys = PackedFloat32Array(0, 1, 0, -2, 0, 1, 1, 0, 0, 0)
tracks/1/type = "value"
tracks/1/imported = false
tracks/1/enabled = true
tracks/1/path = NodePath("Area:disabled")
tracks/1/interp = 1
tracks/1/loop_wrap = true
tracks/1/keys = {
"times": PackedFloat32Array(0, 1),
"transitions": PackedFloat32Array(1, 1),
"update": 1,
"values": [true, false]
}
tracks/2/type = "value"
tracks/2/imported = false
tracks/2/enabled = true
tracks/2/path = NodePath("Eye:light_energy")
tracks/2/interp = 1
tracks/2/loop_wrap = true
tracks/2/keys = {
"times": PackedFloat32Array(0, 20),
"transitions": PackedFloat32Array(1, 1),
"update": 0,
"values": [0.0, 0.5]
}
tracks/3/type = "value"
tracks/3/imported = false
tracks/3/enabled = true
tracks/3/path = NodePath("Eye2:light_energy")
tracks/3/interp = 1
tracks/3/loop_wrap = true
tracks/3/keys = {
"times": PackedFloat32Array(0, 20),
"transitions": PackedFloat32Array(1, 1),
"update": 0,
"values": [0.0, 0.5]
}

[sub_resource type="Animation" id="Animation_yp4eb"]
resource_name = "Seen"
length = 0.3
tracks/0/type = "method"
tracks/0/imported = false
tracks/0/enabled = true
tracks/0/path = NodePath(".")
tracks/0/interp = 1
tracks/0/loop_wrap = true
tracks/0/keys = {
"times": PackedFloat32Array(0.3),
"transitions": PackedFloat32Array(1),
"values": [{
"args": [],
"method": &"queue_free"
}]
}
tracks/1/type = "value"
tracks/1/imported = false
tracks/1/enabled = true
tracks/1/path = NodePath("Area:disabled")
tracks/1/interp = 1
tracks/1/loop_wrap = true
tracks/1/keys = {
"times": PackedFloat32Array(0),
"transitions": PackedFloat32Array(1),
"update": 1,
"values": [true]
}
tracks/2/type = "value"
tracks/2/imported = false
tracks/2/enabled = true
tracks/2/path = NodePath("Eye:light_energy")
tracks/2/interp = 1
tracks/2/loop_wrap = true
tracks/2/keys = {
"times": PackedFloat32Array(0, 0.3),
"transitions": PackedFloat32Array(1, 1),
"update": 0,
"values": [0.0, 0.0]
}
tracks/3/type = "value"
tracks/3/imported = false
tracks/3/enabled = true
tracks/3/path = NodePath("Eye2:light_energy")
tracks/3/interp = 1
tracks/3/loop_wrap = true
tracks/3/keys = {
"times": PackedFloat32Array(0, 0.3),
"transitions": PackedFloat32Array(1, 1),
"update": 0,
"values": [0.0, 0.0]
}
tracks/4/type = "position_3d"
tracks/4/imported = false
tracks/4/enabled = true
tracks/4/path = NodePath("Sprite")
tracks/4/interp = 1
tracks/4/loop_wrap = true
tracks/4/keys = PackedFloat32Array(0, 1, 0, 0, 0, 0.3, 1, 0, -2, 0)

[sub_resource type="AnimationLibrary" id="AnimationLibrary_3h15b"]
_data = {
"Appear": SubResource("Animation_ewwhh"),
"Seen": SubResource("Animation_yp4eb")
}

[sub_resource type="CompressedTexture2D" id="CompressedTexture2D_etyxk"]
load_path = "res://.godot/imported/monster.jpg-b00be1be989979d4acda02b90f5e5b88.s3tc.ctex"

[sub_resource type="CompressedTexture2D" id="CompressedTexture2D_8t4dc"]
load_path = "res://.godot/imported/monster_emission.png-0dc4620b53b2d405b361339aed35a025.s3tc.ctex"

[sub_resource type="StandardMaterial3D" id="StandardMaterial3D_uqo4s"]
albedo_texture = SubResource("CompressedTexture2D_etyxk")
emission_enabled = true
emission_energy_multiplier = 0.1
emission_texture = SubResource("CompressedTexture2D_8t4dc")

[node name="MonsterWindow" type="Area3D"]
collision_layer = 16
collision_mask = 0
script = ExtResource("1_6b4iw")

[node name="Area" type="CollisionShape3D" parent="."]
shape = SubResource("BoxShape3D_xpqsu")
disabled = true

[node name="Animation" type="AnimationPlayer" parent="."]
libraries = {
"": SubResource("AnimationLibrary_3h15b")
}

[node name="Eye" type="OmniLight3D" parent="."]
transform = Transform3D(1, 0, 0, 0, 1, 0, 0, 0, 1, 0.270391, 0.0767372, 0.0256212)
light_color = Color(1, 0, 0, 1)
light_energy = 0.0
omni_range = 0.5
omni_attenuation = 0.3

[node name="Eye2" type="OmniLight3D" parent="."]
transform = Transform3D(1, 0, 0, 0, 1, 0, 0, 0, 1, -0.346257, 0.0767372, 0.0256212)
light_color = Color(1, 0, 0, 1)
light_energy = 0.0
omni_range = 0.5
omni_attenuation = 0.3

[node name="Sprite" type="Sprite3D" parent="."]
transform = Transform3D(0.5, 0, 0, 0, 0.5, 0, 0, 0, 0.5, 0, -2, 0)
material_override = SubResource("StandardMaterial3D_uqo4s")
texture = ExtResource("2_cetfo")
