[gd_scene load_steps=2 format=3 uid="uid://cfpecfti8g4gd"]

[sub_resource type="PlaceholderTexture2D" id="PlaceholderTexture2D_x6iy2"]

[node name="CreditsItem" type="Control"]
custom_minimum_size = Vector2(352, 112)
layout_mode = 3
anchor_right = 0.312
anchor_bottom = 0.185
offset_right = 0.575989
offset_bottom = 0.119995

[node name="Image" type="TextureRect" parent="."]
layout_mode = 1
offset_left = 16.0
offset_top = 16.0
offset_right = 104.0
offset_bottom = 104.0
texture = SubResource("PlaceholderTexture2D_x6iy2")
expand_mode = 1

[node name="VBoxContainer" type="VBoxContainer" parent="."]
layout_mode = 1
anchors_preset = 15
anchor_right = 1.0
anchor_bottom = 1.0
offset_left = 120.0
offset_top = 16.0
offset_right = -16.0
offset_bottom = -8.0
grow_horizontal = 2
grow_vertical = 2

[node name="Title" type="Label" parent="VBoxContainer"]
layout_mode = 2
theme_override_font_sizes/font_size = 24
text = "Person"

[node name="Subtitle" type="Label" parent="VBoxContainer"]
layout_mode = 2
text = "Description"
autowrap_mode = 2
