[gd_scene load_steps=2 format=3 uid="uid://dnbh4d5wwvr1n"]

[ext_resource type="PackedScene" uid="uid://dslvjwd5p2wkq" path="res://Assets/Models/Lamp/scene.gltf" id="1_sw0mb"]

[node name="scene" instance=ExtResource("1_sw0mb")]

[node name="defaultMaterial" parent="Sketchfab_model/Collada visual scene group/g" index="0"]
layers = 2
